\relax 
\citation{ag}
\citation{agz}
\@writefile{toc}{\contentsline {section}{\numberline {1} Einf\IeC {\"u}hrung}{1}}
\newlabel{sec:intro}{{1}{1}}
\@writefile{toc}{\contentsline {section}{\numberline {2} Alpha Go}{1}}
\newlabel{sec:alphago}{{2}{1}}
\@writefile{lof}{\contentsline {figure}{\numberline {1}{\ignorespaces Die vier f\IeC {\"u}r die MCTS trainierten Netze}}{2}}
\newlabel{ntws}{{1}{2}}
\@writefile{lof}{\contentsline {figure}{\numberline {2}{\ignorespaces Die Monte Carlo Tree Search bei Alpha Go}}{2}}
\newlabel{mcts_go}{{2}{2}}
\@writefile{toc}{\contentsline {section}{\numberline {3} Alpha Go Zero}{3}}
\newlabel{sec:zero}{{3}{3}}
\@writefile{lof}{\contentsline {figure}{\numberline {3}{\ignorespaces Das neue Lernverfahren bei Alpha Go Zero}}{3}}
\newlabel{agzero_selfplay}{{3}{3}}
\@writefile{lof}{\contentsline {figure}{\numberline {4}{\ignorespaces Alpha Go Zero im Vergleich zu \IeC {\"u}berwachtem Lernen}}{3}}
\newlabel{agzero_limits}{{4}{3}}
\citation{acz}
\bibstyle{IEEEbib}
\bibdata{refs}
\bibcite{ag}{1}
\bibcite{agz}{2}
\bibcite{acz}{3}
\@writefile{lof}{\contentsline {figure}{\numberline {5}{\ignorespaces Alpha Zero - ein Verfahren f\IeC {\"u}r verschiedene Spiele}}{4}}
\newlabel{zero_comp}{{5}{4}}
\@writefile{toc}{\contentsline {section}{\numberline {4} Fazit und Ausblick}{4}}
\newlabel{sec:future}{{4}{4}}
\@writefile{toc}{\contentsline {section}{\numberline {5} References}{4}}
